<svg width="64" height="65" viewBox="0 0 64 65" fill="none" xmlns="http://www.w3.org/2000/svg">
<path d="M62 32C62 15.4315 48.5685 2 32 2C15.4315 2 2 15.4315 2 32C2 48.5685 15.4315 62 32 62C48.5685 62 62 48.5685 62 32Z" fill="url(#paint0_linear_2_120)"/>
<g filter="url(#filter0_f_2_120)">
<path d="M61.2206 32C61.2206 15.8618 48.1381 2.7792 31.9999 2.7792C15.8617 2.7792 2.77905 15.8618 2.77905 32C2.77905 48.1382 15.8617 61.2208 31.9999 61.2208C48.1381 61.2208 61.2206 48.1382 61.2206 32Z" fill="url(#paint1_linear_2_120)"/>
<path d="M60.9706 32C60.9706 15.9999 48 3.0292 31.9999 3.0292C15.9997 3.0292 3.02905 15.9999 3.02905 32C3.02905 48.0001 15.9997 60.9708 31.9999 60.9708C48 60.9708 60.9706 48.0001 60.9706 32Z" stroke="url(#paint2_linear_2_120)" stroke-width="0.5"/>
</g>
<g filter="url(#filter1_f_2_120)">
<path d="M35.543 27.7954V23.0407C35.543 20.8942 36.067 19.8084 39.751 19.8084H44.374V11.8214H36.66C27.208 11.8214 24.09 15.74 24.09 22.4666V27.7954H17.88V35.782H24.09V59.743H35.543V35.782H43.325L44.374 27.7954H35.543Z" fill="#13488C" fill-opacity="0.5"/>
</g>
<path fill-rule="evenodd" clip-rule="evenodd" d="M37.6209 22.8088V27.7955H45.932L44.945 36.172H37.6209V61.302H37.615V61.475C34.773 62.234 29.1269 62.067 26.8399 61.558V60.452H26.841V36.172H20.9969V27.7955H26.841V22.2067C26.841 15.152 29.777 11.0422 38.673 11.0422H45.932V19.4189H41.5819C38.1139 19.4189 37.6209 20.5576 37.6209 22.8088Z" fill="white" fill-opacity="0.9"/>
<mask id="mask0_2_120" style="mask-type:luminance" maskUnits="userSpaceOnUse" x="20" y="11" width="26" height="51">
<path fill-rule="evenodd" clip-rule="evenodd" d="M37.6209 22.8088V27.7955H45.932L44.945 36.172H37.6209V61.302H37.615V61.475C34.773 62.234 29.1269 62.067 26.8399 61.558V60.452H26.841V36.172H20.9969V27.7955H26.841V22.2067C26.841 15.152 29.777 11.0422 38.673 11.0422H45.932V19.4189H41.5819C38.1139 19.4189 37.6209 20.5576 37.6209 22.8088Z" fill="white"/>
</mask>
<g mask="url(#mask0_2_120)">
<path d="M37.6209 27.7955H37.1209V28.2955H37.6209V27.7955ZM45.932 27.7955L46.4289 27.854L46.4949 27.2955H45.932V27.7955ZM44.945 36.172V36.672H45.3899L45.4419 36.231L44.945 36.172ZM37.6209 36.172V35.672H37.1209V36.172H37.6209ZM37.6209 61.302V61.802H38.1209V61.302H37.6209ZM37.615 61.302V60.802H37.115V61.302H37.615ZM37.615 61.475L37.7439 61.958L38.115 61.859V61.475H37.615ZM26.8399 61.558H26.3399V61.959L26.7309 62.046L26.8399 61.558ZM26.8399 60.452V59.952H26.3399V60.452H26.8399ZM26.841 60.452V60.952H27.341V60.452H26.841ZM26.841 36.172H27.341V35.672H26.841V36.172ZM20.9969 36.172H20.4969V36.672H20.9969V36.172ZM20.9969 27.7955V27.2955H20.4969V27.7955H20.9969ZM26.841 27.7955V28.2955H27.341V27.7955H26.841ZM45.932 11.0422H46.432V10.5422H45.932V11.0422ZM45.932 19.4189V19.9189H46.432V19.4189H45.932ZM38.1209 27.7955V22.8088H37.1209V27.7955H38.1209ZM45.932 27.2955H37.6209V28.2955H45.932V27.2955ZM45.4419 36.231L46.4289 27.854L45.436 27.737L44.449 36.114L45.4419 36.231ZM37.6209 36.672H44.945V35.672H37.6209V36.672ZM38.1209 61.302V36.172H37.1209V61.302H38.1209ZM37.615 61.802H37.6209V60.802H37.615V61.802ZM37.115 61.302V61.475H38.115V61.302H37.115ZM37.4859 60.992C36.1309 61.354 34.0629 61.502 32.0219 61.492C29.9839 61.481 28.0409 61.313 26.9479 61.07L26.7309 62.046C27.9259 62.312 29.9499 62.481 32.0169 62.492C34.0809 62.503 36.2569 62.355 37.7439 61.958L37.4859 60.992ZM27.3399 61.558V60.452H26.3399V61.558H27.3399ZM26.8399 60.952H26.841V59.952H26.8399V60.952ZM26.341 36.172V60.452H27.341V36.172H26.341ZM20.9969 36.672H26.841V35.672H20.9969V36.672ZM20.4969 27.7955V36.172H21.4969V27.7955H20.4969ZM26.841 27.2955H20.9969V28.2955H26.841V27.2955ZM26.341 22.2067V27.7955H27.341V22.2067H26.341ZM38.673 10.5422C34.159 10.5422 31.0409 11.584 29.0619 13.6314C27.0849 15.6761 26.341 18.6234 26.341 22.2067H27.341C27.341 18.7353 28.0659 16.1004 29.7799 14.3265C31.4929 12.5553 34.291 11.5422 38.673 11.5422V10.5422ZM45.932 10.5422H38.673V11.5422H45.932V10.5422ZM46.432 19.4189V11.0422H45.432V19.4189H46.432ZM41.5819 19.9189H45.932V18.9189H41.5819V19.9189ZM38.1209 22.8088C38.1209 21.6814 38.2559 21.0284 38.6569 20.6202C39.0619 20.2086 39.8669 19.9189 41.5819 19.9189V18.9189C39.8289 18.9189 38.6529 19.1985 37.9439 19.919C37.2319 20.643 37.1209 21.6849 37.1209 22.8088H38.1209Z" fill="url(#paint3_linear_2_120)"/>
</g>
<defs>
<filter id="filter0_f_2_120" x="0.779053" y="0.779198" width="62.4417" height="62.4416" filterUnits="userSpaceOnUse" color-interpolation-filters="sRGB">
<feFlood flood-opacity="0" result="BackgroundImageFix"/>
<feBlend mode="normal" in="SourceGraphic" in2="BackgroundImageFix" result="shape"/>
<feGaussianBlur stdDeviation="1" result="effect1_foregroundBlur_2_120"/>
</filter>
<filter id="filter1_f_2_120" x="12.88" y="6.8214" width="36.494" height="57.9216" filterUnits="userSpaceOnUse" color-interpolation-filters="sRGB">
<feFlood flood-opacity="0" result="BackgroundImageFix"/>
<feBlend mode="normal" in="SourceGraphic" in2="BackgroundImageFix" result="shape"/>
<feGaussianBlur stdDeviation="2.5" result="effect1_foregroundBlur_2_120"/>
</filter>
<linearGradient id="paint0_linear_2_120" x1="30.831" y1="60.442" x2="32" y2="5.3117" gradientUnits="userSpaceOnUse">
<stop stop-color="#004DAE"/>
<stop offset="0.869762" stop-color="#4497FF"/>
</linearGradient>
<linearGradient id="paint1_linear_2_120" x1="32" y1="9.2077" x2="32" y2="54.792" gradientUnits="userSpaceOnUse">
<stop stop-color="#1778F2"/>
<stop offset="1" stop-color="#1778F2" stop-opacity="0.62"/>
</linearGradient>
<linearGradient id="paint2_linear_2_120" x1="32.0001" y1="2.7792" x2="32.0001" y2="61.221" gradientUnits="userSpaceOnUse">
<stop stop-color="#7CB4FB"/>
<stop offset="1" stop-color="#0B6280"/>
</linearGradient>
<linearGradient id="paint3_linear_2_120" x1="33.4649" y1="11.0422" x2="33.4649" y2="61.992" gradientUnits="userSpaceOnUse">
<stop stop-color="white"/>
<stop offset="1" stop-color="white" stop-opacity="0"/>
</linearGradient>
</defs>
</svg>
