<svg width="70" height="70" viewBox="0 0 70 70" fill="none" xmlns="http://www.w3.org/2000/svg">
<path d="M65 35C65 18.4315 51.5685 5 35 5C18.4315 5 5 18.4315 5 35C5 51.5685 18.4315 65 35 65C51.5685 65 65 51.5685 65 35Z" fill="url(#paint0_linear_2_146)"/>
<g filter="url(#filter0_f_2_146)">
<path d="M64.2206 35C64.2206 18.8618 51.1381 5.7792 34.9999 5.7792C18.8617 5.7792 5.77905 18.8618 5.77905 35C5.77905 51.1382 18.8617 64.2208 34.9999 64.2208C51.1381 64.2208 64.2206 51.1382 64.2206 35Z" fill="url(#paint1_linear_2_146)"/>
<path d="M63.9706 35C63.9706 18.9999 51 6.0292 34.9999 6.0292C18.9997 6.0292 6.02905 18.9999 6.02905 35C6.02905 51.0001 18.9997 63.9708 34.9999 63.9708C51 63.9708 63.9706 51.0001 63.9706 35Z" stroke="url(#paint2_linear_2_146)" stroke-width="0.5"/>
</g>
<g filter="url(#filter1_f_2_146)">
<path d="M49.8439 27.9846C49.4359 26.4519 48.2349 25.245 46.7089 24.8354C43.9439 24.0909 32.8569 24.0909 32.8569 24.0909C32.8569 24.0909 21.7699 24.0909 19.0049 24.8354C17.4799 25.245 16.2779 26.4519 15.8709 27.9846C15.1299 30.7625 15.1299 36.559 15.1299 36.559C15.1299 36.559 15.1299 42.355 15.8709 45.132C16.2779 46.665 17.4799 47.872 19.0049 48.282C21.7699 49.026 32.8569 49.026 32.8569 49.026C32.8569 49.026 43.9439 49.026 46.7089 48.282C48.2349 47.872 49.4359 46.665 49.8439 45.132C50.5839 42.355 50.5839 36.559 50.5839 36.559C50.5839 36.559 50.5839 30.7625 49.8439 27.9846ZM29.3119 41.902V31.2153L38.5229 36.559L29.3119 41.902Z" fill="#9B0000"/>
</g>
<path d="M51.5501 26.4904C51.9131 27.8511 52.0981 29.9706 52.1901 31.7678C52.2361 32.6626 52.2591 33.4712 52.2711 34.0561C52.2771 34.3485 52.2801 34.5848 52.2811 34.7479C52.2821 34.8295 52.2821 34.8927 52.2821 34.9355V34.984V34.9963V34.9993V35.001V35.004V35.016V35.065C52.2821 35.108 52.2821 35.171 52.2811 35.252C52.2801 35.416 52.2771 35.652 52.2711 35.944C52.2591 36.529 52.2361 37.338 52.1901 38.233C52.0981 40.03 51.9131 42.149 51.5501 43.509C51.1651 44.955 50.0311 46.096 48.5921 46.482C47.9271 46.661 46.7381 46.799 45.3081 46.904C43.8851 47.009 42.2441 47.078 40.6871 47.125C39.1301 47.171 37.6601 47.194 36.5781 47.206C36.0371 47.212 35.5941 47.215 35.2861 47.216C35.1321 47.217 35.0121 47.217 34.9301 47.217L34.8371 47.218H34.8131H34.8071H34.8061H34.8051H34.8031H34.7971H34.7741L34.6811 47.217C34.5991 47.217 34.4791 47.217 34.3251 47.216C34.0161 47.215 33.5731 47.212 33.0321 47.206C31.9511 47.194 30.4801 47.171 28.9241 47.125C27.3661 47.078 25.7251 47.009 24.3021 46.904C22.8721 46.799 21.6831 46.661 21.0181 46.482C19.5791 46.096 18.4451 44.956 18.0601 43.51C17.6971 42.15 17.5131 40.03 17.4201 38.233C17.3741 37.338 17.3511 36.529 17.3391 35.944C17.3341 35.652 17.3311 35.416 17.3291 35.252C17.3291 35.171 17.3281 35.108 17.3281 35.065V35.016V35.004V35.001V34.9993V34.9963V34.984V34.9355C17.3281 34.8927 17.3291 34.8295 17.3291 34.7479C17.3311 34.5848 17.3341 34.3485 17.3391 34.0561C17.3511 33.4712 17.3741 32.6626 17.4201 31.7678C17.5131 29.9706 17.6971 27.8512 18.0601 26.4906C18.4451 25.0439 19.5791 23.9047 21.0181 23.5183C21.6831 23.3392 22.8721 23.2007 24.3021 23.0959C25.7251 22.9915 27.3661 22.9219 28.9241 22.8754C30.4801 22.8289 31.9511 22.8057 33.0321 22.7941C33.5731 22.7883 34.0161 22.7854 34.3251 22.7839C34.4791 22.7832 34.5991 22.7828 34.6811 22.7827L34.7741 22.7825H34.7971H34.8031H34.8051H34.8061H34.8071H34.8131H34.8371L34.9301 22.7827C35.0121 22.7828 35.1321 22.7832 35.2861 22.7839C35.5941 22.7854 36.0371 22.7883 36.5781 22.7941C37.6601 22.8057 39.1301 22.8289 40.6871 22.8754C42.2441 22.9219 43.8851 22.9915 45.3081 23.0959C46.7381 23.2007 47.9271 23.3392 48.5921 23.5183C50.0311 23.9046 51.1651 25.0437 51.5501 26.4904ZM31.0101 40.344V40.778L31.3851 40.56L40.5961 35.216L40.9691 35L40.5961 34.784L31.3851 29.4406L31.0101 29.2228V29.6568V40.344Z" fill="white" fill-opacity="0.9"/>
<path d="M52.2821 34.9993V34.9963V34.984V34.9355C52.2821 34.8927 52.2821 34.8295 52.2811 34.7479C52.2801 34.5848 52.2771 34.3485 52.2711 34.0561C52.2591 33.4712 52.2361 32.6626 52.1901 31.7678C52.0981 29.9706 51.9131 27.8511 51.5501 26.4904C51.1651 25.0437 50.0311 23.9046 48.5921 23.5183C47.9271 23.3392 46.7381 23.2007 45.3081 23.0959C43.8851 22.9915 42.2441 22.9219 40.6871 22.8754C39.1301 22.8289 37.6601 22.8057 36.5781 22.7941C36.0371 22.7883 35.5941 22.7854 35.2861 22.7839C35.1321 22.7832 35.0121 22.7828 34.9301 22.7827L34.8371 22.7825H34.8131H34.8071H34.8061H34.8051M52.2821 34.9993L52.5321 35M52.2821 34.9993V35.001V35.004V35.016V35.065C52.2821 35.108 52.2821 35.171 52.2811 35.252C52.2801 35.416 52.2771 35.652 52.2711 35.944C52.2591 36.529 52.2361 37.338 52.1901 38.233C52.0981 40.03 51.9131 42.149 51.5501 43.509C51.1651 44.955 50.0311 46.096 48.5921 46.482C47.9271 46.661 46.7381 46.799 45.3081 46.904C43.8851 47.009 42.2441 47.078 40.6871 47.125C39.1301 47.171 37.6601 47.194 36.5781 47.206C36.0371 47.212 35.5941 47.215 35.2861 47.216C35.1321 47.217 35.0121 47.217 34.9301 47.217L34.8371 47.218H34.8131H34.8071H34.8061H34.8051M34.8051 47.218C34.8051 47.218 34.8051 47.218 34.8051 47.468M34.8051 47.218H34.8031H34.7971H34.7741L34.6811 47.217C34.5991 47.217 34.4791 47.217 34.3251 47.216C34.0161 47.215 33.5731 47.212 33.0321 47.206C31.9511 47.194 30.4801 47.171 28.9241 47.125C27.3661 47.078 25.7251 47.009 24.3021 46.904C22.8721 46.799 21.6831 46.661 21.0181 46.482C19.5791 46.096 18.4451 44.956 18.0601 43.51C17.6971 42.15 17.5131 40.03 17.4201 38.233C17.3741 37.338 17.3511 36.529 17.3391 35.944C17.3341 35.652 17.3311 35.416 17.3291 35.252C17.3291 35.171 17.3281 35.108 17.3281 35.065V35.016V35.004V35.001M17.3281 35.001L17.0781 35M17.3281 35.001V34.9993V34.9963V34.984V34.9355C17.3281 34.8927 17.3291 34.8295 17.3291 34.7479C17.3311 34.5848 17.3341 34.3485 17.3391 34.0561C17.3511 33.4712 17.3741 32.6626 17.4201 31.7678C17.5131 29.9706 17.6971 27.8512 18.0601 26.4906C18.4451 25.0439 19.5791 23.9047 21.0181 23.5183C21.6831 23.3392 22.8721 23.2007 24.3021 23.0959C25.7251 22.9915 27.3661 22.9219 28.9241 22.8754C30.4801 22.8289 31.9511 22.8057 33.0321 22.7941C33.5731 22.7883 34.0161 22.7854 34.3251 22.7839C34.4791 22.7832 34.5991 22.7828 34.6811 22.7827L34.7741 22.7825H34.7971H34.8031H34.8051M34.8051 22.7825C34.8051 22.7825 34.8051 22.7825 34.8051 22.5325M31.0101 40.344V40.778L31.3851 40.56L40.5961 35.216L40.9691 35L40.5961 34.784L31.3851 29.4406L31.0101 29.2228V29.6568V40.344Z" stroke="url(#paint3_linear_2_146)" stroke-width="0.5"/>
<defs>
<filter id="filter0_f_2_146" x="0.779053" y="0.779198" width="68.4417" height="68.4416" filterUnits="userSpaceOnUse" color-interpolation-filters="sRGB">
<feFlood flood-opacity="0" result="BackgroundImageFix"/>
<feBlend mode="normal" in="SourceGraphic" in2="BackgroundImageFix" result="shape"/>
<feGaussianBlur stdDeviation="2.5" result="effect1_foregroundBlur_2_146"/>
</filter>
<filter id="filter1_f_2_146" x="5.12988" y="14.0909" width="55.4541" height="44.9351" filterUnits="userSpaceOnUse" color-interpolation-filters="sRGB">
<feFlood flood-opacity="0" result="BackgroundImageFix"/>
<feBlend mode="normal" in="SourceGraphic" in2="BackgroundImageFix" result="shape"/>
<feGaussianBlur stdDeviation="5" result="effect1_foregroundBlur_2_146"/>
</filter>
<linearGradient id="paint0_linear_2_146" x1="33.831" y1="63.442" x2="35" y2="8.3117" gradientUnits="userSpaceOnUse">
<stop stop-color="#A70000"/>
<stop offset="1" stop-color="#FF9191"/>
</linearGradient>
<linearGradient id="paint1_linear_2_146" x1="35" y1="12.2077" x2="35" y2="57.792" gradientUnits="userSpaceOnUse">
<stop stop-color="#FF0000" stop-opacity="0.67"/>
<stop offset="1" stop-color="#FF0000"/>
</linearGradient>
<linearGradient id="paint2_linear_2_146" x1="35.0001" y1="5.7792" x2="35.0001" y2="64.221" gradientUnits="userSpaceOnUse">
<stop stop-color="#FF8888"/>
<stop offset="1" stop-color="#D60000"/>
</linearGradient>
<linearGradient id="paint3_linear_2_146" x1="34.8051" y1="22.5325" x2="34.8051" y2="47.468" gradientUnits="userSpaceOnUse">
<stop stop-color="white"/>
<stop offset="1" stop-color="white" stop-opacity="0"/>
</linearGradient>
</defs>
</svg>
